<?xml version="1.0" encoding="UTF-8"?>
<glyph name="emacron" format="1">
  <advance width="542"/>
  <unicode hex="0113"/>
  <outline>
    <component base="e"/>
    <component base="macroncomb" xOffset="-4"/>
  </outline>
  <lib>
    <dict>
      <key>com.schriftgestaltung.Glyphs.lastChange</key>
      <string>2018-06-26 20:18:27 +0000</string>
    </dict>
  </lib>
</glyph>
